Number,Nat,Player,PlayerID,Special,Stat,Age,Since,TSI,LS,XP,Fo,Stm,Lo,MB,KP,DF,PM,WI,PS,SC,SP,Psico,Last,Rt,Pos,Wage,G,KPPos,WBdPos,WBPos,WBtmPos,WBoPos,CDPos,CDtwPos,CDoPos,WdPos,WPos,WtmPos,WoPos,IMdPos,IMPos,IMtwPos,IMoPos,FWPos,FWdPos,FWtwPos,TDFPos,BPo,BPoV
2,Hanguk,Jee-Hoon Kim,428709461,,,25.79,6 s 14 wk 4 d,119890,3,4,8,7,20,TRUE,18,5,1,1,1,2,10,1806,2019-08-14,10,KP,40300000,0,16.37,5.96,5.56,5.63,5.15,5.73,5.92,4.98,4.58,3.98,3.92,3.83,4.01,3.77,3.74,3.52,3.68,3.48,3.67,0,KP,16.37
4,Hanguk,Ji-Woon Lee,427619236,,,26.8,7 s 6 wk 3 d,1200,5,4,7,7,20,TRUE,1,7,4,3,5,2,9,732,2019-08-11,4.5,CD,390000,29,4.78,7.77,7.44,7.58,7.12,7.75,7.8,7.22,6.81,6.38,6.36,6.22,6.5,6.33,6.32,6.16,5.23,5.79,5.12,0,CDtw,7.8
8,Hanguk,Hong-Chan Son,427619240,,Y×1,28.49,7 s 6 wk 3 d,1000,5,5,7,7,20,TRUE,1,5,6,5,5,1,10,613,2019-08-11,4,W,310000,18,4.3,7.12,7.18,7.24,7.25,7.32,7.19,7.5,7.34,7.45,7.52,7.36,7.57,7.52,7.61,7.45,5.7,6.54,5.64,0,IMtw,7.61
10,Hanguk,Kwang-Eul Jeon,427619242,,Y×1,30.55,7 s 6 wk 3 d,930,4,6,7,6,20,TRUE,1,6,7,3,3,2,11,703,2019-08-14,5.5,IM,390000,33,4.6,7.59,7.55,7.84,7.54,8.22,7.85,8.39,7.49,7.51,7.75,7.07,8.32,8.15,7.99,7.94,5.83,6.44,5.48,0,Cdo,8.39
12,Hanguk,Chan-Myung Lee,427619244,,,32.31,7 s 6 wk 3 d,270,3,5,8,6,20,TRUE,1,3,7,3,4,3,10,686,2019-08-14,4.5,IM,330000,13,3.79,5.75,6,6.25,6.28,6.56,6.05,7.27,6.71,7.17,7.44,6.87,7.99,8.05,7.84,8.09,6.42,6.99,6.04,0,IMo,8.09
13,Hanguk,Sung-Kook Han,427619245,Technical,,28.19,7 s 6 wk 3 d,1330,2,5,7,7,20,TRUE,1,5,6,6,5,2,10,614,2019-08-11,4.5,W,330000,44,4.31,7.28,7.38,7.36,7.47,7.33,7.29,7.51,7.54,7.66,7.69,7.66,7.61,7.58,7.72,7.52,6.21,0,6.26,6.82,IMtw,7.72
15,Hanguk,Man-Ok Lee,427619247,Unpredictable,Bru,29.72,7 s 6 wk 3 d,1280,5,5,6,6,20,TRUE,1,5,5,7,6,2,10,699,2019-08-11,4.5,W,340000,22,3.75,6.34,6.4,6.26,6.44,6.08,6.23,6.08,6.46,6.5,6.42,6.68,6.07,6.07,6.31,6.06,5.4,5.9,5.61,0,Wo,6.68
16,Hanguk,Dong-Shik Kim,427619248,,Y×1,25.66,7 s 6 wk 3 d,1700,6,4,8,7,20,TRUE,1,3,3,6,4,7,12,774,2019-08-14,6,FW,410000,75,3.84,5.71,5.82,5.57,5.9,5.24,5.51,5.24,5.9,5.96,5.82,6.27,5.39,5.49,5.62,5.61,7.41,6.6,7.72,0,FWtw,7.72
31,Hanguk,Se-Hee Park,430626797,,,25.1,6 s 5 wk 3 d,1130,4,4,5,8,20,TRUE,1,2,5,5,3,7,9,705,2019-08-11,4.5,FW,390000,58,2.91,4.27,4.52,4.47,4.77,4.41,4.29,4.87,5,5.34,5.41,5.37,5.43,5.54,5.48,5.65,6.33,5.79,6.34,0,FWtw,6.34
34,Sverige,Axel Hermansson,422526443,,Y×1,34.88,6 s 3 wk 2 d,110,5,6,8,5,20,FALSE,2,6,6,1,5,1,9,590,2019-08-11,4,CD,348000,25,4.72,6.59,6.43,6.81,6.29,7.3,6.9,7.3,6.35,6.26,6.46,5.81,7.15,7.04,6.78,6.91,4.72,5.74,4.22,0,CD,7.3
40,Perú,Matías Pichis,416567166,,,28.44,5 s 15 wk 2 d,8460,6,3,8,7,20,FALSE,1,10,8,2,4,4,9,998,2019-08-14,6,CD,1764000,8,5.09,9.76,9.36,9.87,8.99,10.56,10.14,10.2,8.57,8.12,8.4,7.37,9.4,9.05,8.67,8.66,6.4,6.96,5.78,0,CD,10.56
48,Hanguk,Dong-Suk Lee,432205385,Technical,,24.15,5 s 9 wk 2 d,1020,6,3,4,8,20,TRUE,1,5,4,5,6,5,6,615,2019-08-04,3.5,FW,290000,28,3.11,5.05,5,4.96,4.95,4.89,4.99,4.76,4.93,4.86,4.79,4.95,4.67,4.7,4.73,4.74,5.07,0,5.13,5.12,FWtw,5.13
52,Hanguk,Seong-Gong Choi,433454317,Unpredictable,Y×1,22.95,5 s 5 wk 4 d,6320,4,3,8,8,20,TRUE,1,7,7,7,4,5,7,800,2019-08-14,5,CD,550000,25,4.82,9.04,9.04,9.04,9.04,9.04,9.04,9.04,8.82,8.77,8.82,8.66,8.83,8.68,8.77,8.49,7.74,7.72,7.8,0,CD,9.04
55,Hanguk,Geun-Ho Han,433728993,,,23.97,5 s 2 wk 4 d,2430,3,3,7,8,20,TRUE,1,5,6,4,3,7,6,712,2019-08-14,5,FW,410000,36,4.11,6.83,6.86,7,6.91,7.19,6.97,7.37,6.88,6.94,7.09,6.7,7.48,7.43,7.22,7.36,7.48,7,7.28,0,IMd,7.48
61,Oceania,Cedrick Williamson,430364099,Powerful,,23.48,4 s 13 wk 2 d,6680,3,4,7,8,20,FALSE,1,8,5,7,7,2,7,867,2019-08-11,4.5,WB,708000,7,4.62,8.76,8.53,8.43,8.3,8.29,8.6,7.75,7.98,7.61,7.44,7.74,7.07,6.92,7.21,6.78,5.87,6.58,6.1,0,WBd,8.76
70,Hanguk,Min-Gyu Jung,429263814,,,27.89,4 s 4 wk 1 d,4900,1,4,6,7,20,FALSE,1,9,6,4,4,2,7,933,2019-08-14,4.5,CD,1050000,5,4.49,8.35,8.02,8.22,7.7,8.48,8.45,7.98,7.24,6.79,6.84,6.46,7.14,6.84,6.83,6.52,4.89,5.44,4.73,0,CD,8.48
78,Hanguk,Jung-Oh Han,433730490,Technical,,24.6,3 s 2 wk 1 d,5010,4,3,8,8,20,FALSE,1,9,3,5,1,3,6,957,2019-08-14,5.5,WB,1270000,6,4.89,8.91,8.38,8.33,7.83,8.26,8.72,7.15,6.78,5.88,5.74,5.76,5.54,5.08,5.3,4.59,4.5,0,4.77,4.04,WBd,8.91
79,España,Jimeno Eguiruren,415605434,,Y×1,28.62,2 s 15 wk 4 d,21470,5,6,6,7,19,FALSE,1,8,11,3,9,2,6,1088,2019-08-14,6.5,IM,4116000,35,4.36,8.44,8.46,8.98,8.52,9.68,8.93,10.17,8.95,9.21,9.57,8.6,10.55,10.53,10.16,10.48,6.92,8.62,6.17,0,IMd,10.55
80,Andorra,Joaquim Muntaner,427020395,Technical,,30.8,2 s 13 wk 6 d,9520,6,7,8,6,19,FALSE,1,9,6,8,7,4,10,899,2019-08-11,6,WB,1164000,43,5.15,9.97,9.75,9.64,9.51,9.51,9.81,8.97,9.12,8.73,8.59,8.83,8.25,8.08,8.34,7.9,7.32,0,7.56,7.76,WBd,9.97
81,Hanguk,Sang-Yong Jang,433566477,,,24.0,2 s 13 wk 3 d,8210,2,3,7,8,19,FALSE,1,9,6,6,5,4,5,942,2019-08-14,5,WB,1170000,16,4.69,9.2,8.91,8.97,8.62,9.04,9.18,8.5,8.14,7.69,7.65,7.54,7.68,7.42,7.51,7.15,6.31,6.55,6.34,0,WBd,9.2
83,Hanguk,Kwang-Hyun Seo,434869614,Unpredictable,,22.109,2 s 10 wk 4 d,2990,2,3,8,8,18,FALSE,1,8,5,4,5,4,2,803,2019-08-14,4.5,W,530000,18,4.5,8.32,7.98,8.12,7.65,8.3,8.36,7.74,7.25,6.79,6.77,6.58,6.97,6.77,6.72,6.55,5.93,6.18,5.82,0,CDtw,8.36
84,Hanguk,Kang Jung,440669717,,,19.4,2 s 0 wk 4 d,30740,5,2,6,7,20,TRUE,12,4,1,1,1,1,4,1304,2019-08-11,6,KP,9190000,0,9.91,4.23,3.97,4.01,3.7,4.08,4.2,3.59,3.33,2.95,2.9,2.85,2.95,2.78,2.79,2.61,2.48,2.48,2.48,0,KP,9.91
86,Portugal,Manuel Fontes,434526981,,,24.84,7 wk 3 d,19950,4,4,6,7,8,FALSE,1,5,6,12,8,3,6,1254,2019-08-14,5.5,W,3612000,21,2.85,6.37,6.64,6.19,6.88,5.61,6.03,5.77,6.99,7.23,7,7.79,6.02,6.11,6.69,6.21,5.99,6.44,6.61,0,Wo,7.79
87,Schweiz,Christoffer Bockhorn,430882772,Quick,Y×1,23.25,5 wk 1 d,32330,3,4,5,7,7,FALSE,1,9,11,3,10,4,12,1080,2019-08-11,5.5,IM,5028000,18,3.47,7.44,7.38,7.87,7.36,8.52,7.88,8.81,7.69,7.82,8.11,7.27,9.04,9.02,8.63,8.99,6.33,7.65,5.63,0,IMd,9.04
88,Italia,Valentino Bologni,422076494,,,26.71,5 wk 1 d,101850,2,5,6,7,7,FALSE,1,9,14,3,10,3,2,1465,2019-08-11,7.5,IM,26424000,32,3.91,8.67,8.78,9.48,8.93,10.4,9.36,11.21,9.55,9.99,10.51,9.16,11.88,11.87,11.33,11.81,7.45,9.36,6.44,0,IMd,11.88
89,Bulgaria,Ivaylo Bozhilov,430859957,,,23.31,1 wk 2 d,18400,5,3,7,7,4,FALSE,2,5,7,4,10,8,13,1055,2019-08-11,6.5,FW,1836000,12,3.38,5.51,5.6,5.79,5.7,6.05,5.71,6.4,6.25,6.54,6.63,6.46,7.04,7.29,6.96,7.56,7.69,8.05,7.31,0,FWd,8.05
99,Danmark,Torben Boesen,321795066,Head,,43.111,3 s 0 wk 4 d,0,4,13,5,1,20,FALSE,0,2,0,0,0,0,0,190,2018-06-06,4,WB,300000,79,1.52,1.91,1.81,1.83,1.71,1.85,1.9,1.67,1.57,1.42,1.4,1.38,1.42,1.35,1.36,1.29,1.24,1.24,1.24,0,WBd,1.91
